<?xml version='1.0' encoding='UTF-8'?>
<!-- This file was generated by dvisvgm 1.15.1 -->
<svg height='11.0211pt' version='1.1' viewBox='70.7347 59.3575 146.831 11.0211' width='146.831pt' xmlns='http://www.w3.org/2000/svg' xmlns:xlink='http://www.w3.org/1999/xlink'>
<defs>
<path d='M8.04 -4.10182C8.09454 -4.24364 8.13818 -4.33091 8.78182 -4.33091V-4.84364C8.53091 -4.82182 8.20363 -4.81091 7.94182 -4.81091C7.64727 -4.81091 7.13454 -4.83273 6.89454 -4.84364V-4.33091C6.99273 -4.33091 7.52727 -4.32 7.52727 -4.2C7.52727 -4.16727 7.49454 -4.10182 7.48363 -4.06909L6.33818 -1.27636L5.09454 -4.33091H5.70545V-4.84364C5.35636 -4.83273 4.78909 -4.81091 4.46182 -4.81091C4.00364 -4.81091 3.54545 -4.83273 3.37091 -4.84364V-4.33091H4.01454C4.24364 -3.78545 4.24364 -3.76364 4.24364 -3.75273C4.24364 -3.70909 4.21091 -3.64364 4.2 -3.61091L3.33818 -1.51636L2.19273 -4.33091H2.80364V-4.84364C2.35636 -4.82182 1.90909 -4.81091 1.46182 -4.81091C1.12364 -4.81091 0.643636 -4.83273 0.272727 -4.84364V-4.33091H0.916363L2.58545 -0.250909C2.66182 -0.0654545 2.70545 0.0436364 2.97818 0.0436364S3.29454 -0.0654545 3.37091 -0.250909L4.52727 -3.07636L5.68363 -0.250909C5.76 -0.0654545 5.80363 0.0436364 6.07636 0.0436364S6.39273 -0.0654545 6.46909 -0.250909L8.04 -4.10182Z' id='g0-119'/>
<path d='M3.77454 -2.68364L5.05091 -4.10182C5.19273 -4.25454 5.25818 -4.33091 6.16363 -4.33091V-4.84364C5.78182 -4.82182 5.21454 -4.81091 5.16 -4.81091C4.88727 -4.81091 4.34182 -4.83273 4.03636 -4.84364V-4.33091C4.18909 -4.33091 4.32 -4.30909 4.45091 -4.23273C4.40727 -4.16727 4.40727 -4.14545 4.36364 -4.10182L3.44727 -3.07636L2.37818 -4.33091H2.81454V-4.84364C2.53091 -4.83273 1.84364 -4.81091 1.49455 -4.81091S0.654545 -4.83273 0.294545 -4.84364V-4.33091H1.06909L2.77091 -2.32364L1.34182 -0.72C1.15636 -0.512727 0.763636 -0.512727 0.24 -0.512727V0C0.621818 -0.0218182 1.18909 -0.0327273 1.24364 -0.0327273C1.51636 -0.0327273 2.14909 -0.0109091 2.36727 0V-0.512727C2.17091 -0.512727 1.96364 -0.567273 1.96364 -0.632727C1.96364 -0.643636 1.96364 -0.654545 2.04 -0.741818L3.09818 -1.93091L4.29818 -0.512727H3.87273V0C4.15636 -0.0109091 4.82182 -0.0327273 5.18182 -0.0327273C5.53091 -0.0327273 6.02182 -0.0109091 6.38182 0V-0.512727H5.60727L3.77454 -2.68364Z' id='g0-120'/>
<path d='M4.46182 -2.50909H7.50545C7.65818 -2.50909 7.86545 -2.50909 7.86545 -2.72727S7.65818 -2.94545 7.50545 -2.94545H4.46182V-6C4.46182 -6.15273 4.46182 -6.36 4.24364 -6.36S4.02545 -6.15273 4.02545 -6V-2.94545H0.970909C0.818182 -2.94545 0.610909 -2.94545 0.610909 -2.72727S0.818182 -2.50909 0.970909 -2.50909H4.02545V0.545454C4.02545 0.698182 4.02545 0.905454 4.24364 0.905454S4.46182 0.698182 4.46182 0.545454V-2.50909Z' id='g4-43'/>
<path d='M7.49454 -3.56727C7.65818 -3.56727 7.86545 -3.56727 7.86545 -3.78545S7.65818 -4.00364 7.50545 -4.00364H0.970909C0.818182 -4.00364 0.610909 -4.00364 0.610909 -3.78545S0.818182 -3.56727 0.981818 -3.56727H7.49454ZM7.50545 -1.45091C7.65818 -1.45091 7.86545 -1.45091 7.86545 -1.66909S7.65818 -1.88727 7.49454 -1.88727H0.981818C0.818182 -1.88727 0.610909 -1.88727 0.610909 -1.66909S0.818182 -1.45091 0.970909 -1.45091H7.50545Z' id='g4-61'/>
<path d='M2.50262 -5.07696C2.50262 -5.29215 2.48667 -5.30012 2.27148 -5.30012C1.94471 -4.98132 1.52229 -4.79004 0.765131 -4.79004V-4.52702C0.980324 -4.52702 1.41071 -4.52702 1.87298 -4.74222V-0.653549C1.87298 -0.358655 1.84907 -0.263014 1.09191 -0.263014H0.812951V0C1.13973 -0.0239103 1.82516 -0.0239103 2.18381 -0.0239103S3.23587 -0.0239103 3.56264 0V-0.263014H3.28369C2.52653 -0.263014 2.50262 -0.358655 2.50262 -0.653549V-5.07696Z' id='g3-49'/>
<path d='M2.09454 -0.578182C2.09454 -0.894545 1.83273 -1.15636 1.51636 -1.15636S0.938182 -0.894545 0.938182 -0.578182S1.2 0 1.51636 0S2.09454 -0.261818 2.09454 -0.578182Z' id='g2-58'/>
<path d='M2.60727 -7.45091C2.60727 -7.46182 2.60727 -7.57091 2.46545 -7.57091C2.21454 -7.57091 1.41818 -7.48363 1.13455 -7.46182C1.04727 -7.45091 0.927272 -7.44 0.927272 -7.24363C0.927272 -7.11273 1.02545 -7.11273 1.18909 -7.11273C1.71273 -7.11273 1.73454 -7.03636 1.73454 -6.92727C1.73454 -6.85091 1.63636 -6.48 1.58182 -6.25091L0.687273 -2.69454C0.556363 -2.14909 0.512727 -1.97454 0.512727 -1.59273C0.512727 -0.556363 1.09091 0.12 1.89818 0.12C3.18545 0.12 4.52727 -1.50545 4.52727 -3.07636C4.52727 -4.06909 3.94909 -4.82182 3.07636 -4.82182C2.57454 -4.82182 2.12727 -4.50545 1.8 -4.16727L2.60727 -7.45091ZM1.58182 -3.32727C1.64727 -3.56727 1.64727 -3.58909 1.74545 -3.70909C2.28 -4.41818 2.77091 -4.58182 3.05454 -4.58182C3.44727 -4.58182 3.74182 -4.25454 3.74182 -3.55636C3.74182 -2.91273 3.38182 -1.65818 3.18545 -1.24364C2.82545 -0.512727 2.32364 -0.12 1.89818 -0.12C1.52727 -0.12 1.16727 -0.414545 1.16727 -1.22182C1.16727 -1.42909 1.16727 -1.63636 1.34182 -2.32364L1.58182 -3.32727Z' id='g2-98'/>
<path d='M5.04 -3.69818C5.09454 -3.93818 5.20363 -4.34182 5.20363 -4.40727C5.20363 -4.60364 5.05091 -4.70182 4.88727 -4.70182C4.75636 -4.70182 4.56 -4.61454 4.48364 -4.39636C4.45091 -4.32 3.93818 -2.23636 3.86182 -1.95273C3.78545 -1.62545 3.76364 -1.42909 3.76364 -1.23273C3.76364 -1.11273 3.76364 -1.09091 3.77454 -1.03636C3.52364 -0.458182 3.19636 -0.12 2.77091 -0.12C1.89818 -0.12 1.89818 -0.927272 1.89818 -1.11273C1.89818 -1.46182 1.95273 -1.88727 2.46545 -3.22909C2.58545 -3.55636 2.65091 -3.70909 2.65091 -3.92727C2.65091 -4.41818 2.29091 -4.82182 1.75636 -4.82182C0.72 -4.82182 0.316364 -3.24 0.316364 -3.14182C0.316364 -3.03273 0.425454 -3.03273 0.447273 -3.03273C0.556363 -3.03273 0.567273 -3.05454 0.621818 -3.22909C0.916363 -4.24364 1.34182 -4.58182 1.72364 -4.58182C1.82182 -4.58182 1.99636 -4.57091 1.99636 -4.22182C1.99636 -3.94909 1.87636 -3.64364 1.8 -3.45818C1.32 -2.17091 1.18909 -1.66909 1.18909 -1.25455C1.18909 -0.261818 1.92 0.12 2.73818 0.12C2.92364 0.12 3.43636 0.12 3.87273 -0.643636C4.15636 0.0545454 4.90909 0.12 5.23636 0.12C6.05454 0.12 6.53454 -0.567273 6.81818 -1.22182C7.18909 -2.07273 7.53818 -3.53454 7.53818 -4.05818C7.53818 -4.65818 7.24363 -4.82182 7.05818 -4.82182C6.78545 -4.82182 6.51273 -4.53818 6.51273 -4.29818C6.51273 -4.15636 6.57818 -4.09091 6.67636 -4.00364C6.79636 -3.88364 7.06909 -3.6 7.06909 -3.07636C7.06909 -2.70545 6.75273 -1.63636 6.46909 -1.08C6.18545 -0.501818 5.80363 -0.12 5.26909 -0.12C4.75636 -0.12 4.46182 -0.447273 4.46182 -1.06909C4.46182 -1.37455 4.53818 -1.71273 4.58182 -1.86545L5.04 -3.69818Z' id='g2-119'/>
<path d='M3.64364 -3.29454C3.70909 -3.57818 3.96 -4.58182 4.72364 -4.58182C4.77818 -4.58182 5.04 -4.58182 5.26909 -4.44C4.96363 -4.38545 4.74545 -4.11273 4.74545 -3.85091C4.74545 -3.67636 4.86545 -3.46909 5.16 -3.46909C5.4 -3.46909 5.74909 -3.66545 5.74909 -4.10182C5.74909 -4.66909 5.10545 -4.82182 4.73454 -4.82182C4.10182 -4.82182 3.72 -4.24364 3.58909 -3.99273C3.31636 -4.71273 2.72727 -4.82182 2.41091 -4.82182C1.27636 -4.82182 0.654545 -3.41454 0.654545 -3.14182C0.654545 -3.03273 0.763636 -3.03273 0.785454 -3.03273C0.872727 -3.03273 0.905454 -3.05454 0.927272 -3.15273C1.29818 -4.30909 2.01818 -4.58182 2.38909 -4.58182C2.59636 -4.58182 2.97818 -4.48364 2.97818 -3.85091C2.97818 -3.51273 2.79273 -2.78182 2.38909 -1.25455C2.21454 -0.578182 1.83273 -0.12 1.35273 -0.12C1.28727 -0.12 1.03636 -0.12 0.807273 -0.261818C1.08 -0.316364 1.32 -0.545454 1.32 -0.850909C1.32 -1.14545 1.08 -1.23273 0.916363 -1.23273C0.589091 -1.23273 0.316364 -0.949091 0.316364 -0.6C0.316364 -0.0981818 0.861818 0.12 1.34182 0.12C2.06182 0.12 2.45454 -0.643636 2.48727 -0.709091C2.61818 -0.305454 3.01091 0.12 3.66545 0.12C4.78909 0.12 5.41091 -1.28727 5.41091 -1.56C5.41091 -1.66909 5.31273 -1.66909 5.28 -1.66909C5.18182 -1.66909 5.16 -1.62545 5.13818 -1.54909C4.77818 -0.381818 4.03636 -0.12 3.68727 -0.12C3.26182 -0.12 3.08727 -0.469091 3.08727 -0.84C3.08727 -1.08 3.15273 -1.32 3.27273 -1.8L3.64364 -3.29454Z' id='g2-120'/>
<path d='M3.60249 -4.82192C3.67422 -5.10884 3.68219 -5.12478 4.00897 -5.12478H4.61469C5.44359 -5.12478 5.53923 -4.86177 5.53923 -4.46326C5.53923 -4.26401 5.49141 -3.9213 5.48344 -3.88144C5.4675 -3.79377 5.45953 -3.72204 5.45953 -3.7061C5.45953 -3.60249 5.53126 -3.57858 5.57908 -3.57858C5.66675 -3.57858 5.69863 -3.6264 5.72254 -3.77783L5.93773 -5.27621C5.93773 -5.3878 5.84209 -5.3878 5.69863 -5.3878H1.00423C0.804981 -5.3878 0.789041 -5.3878 0.73325 -5.22042L0.247073 -3.84159C0.231133 -3.80174 0.207223 -3.73798 0.207223 -3.69016C0.207223 -3.6264 0.263014 -3.57858 0.326775 -3.57858C0.414446 -3.57858 0.430386 -3.61843 0.478207 -3.75392C0.932503 -5.02914 1.16364 -5.12478 2.37509 -5.12478H2.68593C2.92503 -5.12478 2.933 -5.11681 2.933 -5.05305C2.933 -5.02914 2.90112 -4.86974 2.89315 -4.83786L1.8411 -0.653549C1.76936 -0.350685 1.74545 -0.263014 0.916563 -0.263014C0.661519 -0.263014 0.581818 -0.263014 0.581818 -0.111582C0.581818 -0.103611 0.581818 0 0.71731 0C0.932503 0 1.48244 -0.0239103 1.69763 -0.0239103H2.37509C2.59826 -0.0239103 3.15616 0 3.37933 0C3.44309 0 3.56264 0 3.56264 -0.151432C3.56264 -0.263014 3.47497 -0.263014 3.25978 -0.263014C3.06849 -0.263014 3.00473 -0.263014 2.79751 -0.278954C2.54247 -0.302864 2.51059 -0.334745 2.51059 -0.438356C2.51059 -0.470237 2.51856 -0.502117 2.54247 -0.581818L3.60249 -4.82192Z' id='g1-84'/>
<path d='M1.59402 -1.3071C1.61793 -1.42665 1.69763 -1.72951 1.72154 -1.84907C1.83313 -2.27945 1.83313 -2.28742 2.01644 -2.55044C2.27945 -2.94097 2.65405 -3.29166 3.18804 -3.29166C3.47497 -3.29166 3.64234 -3.12428 3.64234 -2.74969C3.64234 -2.31133 3.3076 -1.40274 3.15616 -1.0122C3.05255 -0.749191 3.05255 -0.70137 3.05255 -0.597758C3.05255 -0.143462 3.42715 0.0797011 3.76986 0.0797011C4.55093 0.0797011 4.87771 -1.03611 4.87771 -1.13973C4.87771 -1.21943 4.81395 -1.24334 4.75816 -1.24334C4.66252 -1.24334 4.64658 -1.18755 4.62267 -1.10785C4.43138 -0.454296 4.09664 -0.143462 3.79377 -0.143462C3.66625 -0.143462 3.60249 -0.223163 3.60249 -0.406476S3.66625 -0.765131 3.74595 -0.964384C3.8655 -1.26725 4.21619 -2.18381 4.21619 -2.63014C4.21619 -3.2279 3.80174 -3.51482 3.2279 -3.51482C2.58232 -3.51482 2.16787 -3.12428 1.93674 -2.82142C1.88095 -3.25978 1.53026 -3.51482 1.12379 -3.51482C0.836862 -3.51482 0.637609 -3.33151 0.510087 -3.08443C0.318804 -2.70984 0.239103 -2.31133 0.239103 -2.29539C0.239103 -2.22366 0.294894 -2.19178 0.358655 -2.19178C0.462267 -2.19178 0.470237 -2.22366 0.526027 -2.43088C0.621669 -2.82142 0.765131 -3.29166 1.09988 -3.29166C1.3071 -3.29166 1.35492 -3.0924 1.35492 -2.91706C1.35492 -2.7736 1.31507 -2.62217 1.25131 -2.35915C1.23537 -2.29539 1.11582 -1.82516 1.08394 -1.71357L0.789041 -0.518057C0.757161 -0.398506 0.70934 -0.199253 0.70934 -0.167372C0.70934 0.0159402 0.860772 0.0797011 0.964384 0.0797011C1.10785 0.0797011 1.2274 -0.0159402 1.28319 -0.111582C1.3071 -0.159402 1.37086 -0.430386 1.41071 -0.597758L1.59402 -1.3071Z' id='g1-110'/>
</defs>
<g id='page1'>
<use x='70.7347' xlink:href='#g0-119' y='68.7422'/>
<use x='79.7953' xlink:href='#g1-84' y='64.7834'/>
<use x='86.3998' xlink:href='#g2-58' y='68.7422'/>
<use x='89.4188' xlink:href='#g0-120' y='68.7422'/>
<use x='98.4641' xlink:href='#g4-43' y='68.7422'/>
<use x='109.342' xlink:href='#g2-98' y='68.7422'/>
<use x='117.036' xlink:href='#g4-61' y='68.7422'/>
<use x='128.52' xlink:href='#g2-119' y='68.7422'/>
<use x='136.3' xlink:href='#g3-49' y='70.3786'/>
<use x='141.033' xlink:href='#g2-120' y='68.7422'/>
<use x='147.244' xlink:href='#g3-49' y='70.3786'/>
<use x='154.401' xlink:href='#g4-43' y='68.7422'/>
<use x='165.278' xlink:href='#g2-58' y='68.7422'/>
<use x='168.297' xlink:href='#g2-58' y='68.7422'/>
<use x='171.316' xlink:href='#g2-58' y='68.7422'/>
<use x='174.335' xlink:href='#g2-119' y='68.7422'/>
<use x='182.116' xlink:href='#g1-110' y='70.3786'/>
<use x='187.752' xlink:href='#g2-120' y='68.7422'/>
<use x='193.964' xlink:href='#g1-110' y='70.3786'/>
<use x='202.024' xlink:href='#g4-43' y='68.7422'/>
<use x='212.902' xlink:href='#g2-98' y='68.7422'/>
</g>
</svg>
<!--Rendered by QuickLaTeX.com-->