<?xml version='1.0' encoding='UTF-8'?>
<!-- This file was generated by dvisvgm 1.15.1 -->
<svg height='32.6053pt' version='1.1' viewBox='70.7347 57.7849 93.3651 32.6053' width='93.3651pt' xmlns='http://www.w3.org/2000/svg' xmlns:xlink='http://www.w3.org/1999/xlink'>
<defs>
<path d='M8.04 -4.10182C8.09454 -4.24364 8.13818 -4.33091 8.78182 -4.33091V-4.84364C8.53091 -4.82182 8.20363 -4.81091 7.94182 -4.81091C7.64727 -4.81091 7.13454 -4.83273 6.89454 -4.84364V-4.33091C6.99273 -4.33091 7.52727 -4.32 7.52727 -4.2C7.52727 -4.16727 7.49454 -4.10182 7.48363 -4.06909L6.33818 -1.27636L5.09454 -4.33091H5.70545V-4.84364C5.35636 -4.83273 4.78909 -4.81091 4.46182 -4.81091C4.00364 -4.81091 3.54545 -4.83273 3.37091 -4.84364V-4.33091H4.01454C4.24364 -3.78545 4.24364 -3.76364 4.24364 -3.75273C4.24364 -3.70909 4.21091 -3.64364 4.2 -3.61091L3.33818 -1.51636L2.19273 -4.33091H2.80364V-4.84364C2.35636 -4.82182 1.90909 -4.81091 1.46182 -4.81091C1.12364 -4.81091 0.643636 -4.83273 0.272727 -4.84364V-4.33091H0.916363L2.58545 -0.250909C2.66182 -0.0654545 2.70545 0.0436364 2.97818 0.0436364S3.29454 -0.0654545 3.37091 -0.250909L4.52727 -3.07636L5.68363 -0.250909C5.76 -0.0654545 5.80363 0.0436364 6.07636 0.0436364S6.39273 -0.0654545 6.46909 -0.250909L8.04 -4.10182Z' id='g0-119'/>
<path d='M3.77454 -2.68364L5.05091 -4.10182C5.19273 -4.25454 5.25818 -4.33091 6.16363 -4.33091V-4.84364C5.78182 -4.82182 5.21454 -4.81091 5.16 -4.81091C4.88727 -4.81091 4.34182 -4.83273 4.03636 -4.84364V-4.33091C4.18909 -4.33091 4.32 -4.30909 4.45091 -4.23273C4.40727 -4.16727 4.40727 -4.14545 4.36364 -4.10182L3.44727 -3.07636L2.37818 -4.33091H2.81454V-4.84364C2.53091 -4.83273 1.84364 -4.81091 1.49455 -4.81091S0.654545 -4.83273 0.294545 -4.84364V-4.33091H1.06909L2.77091 -2.32364L1.34182 -0.72C1.15636 -0.512727 0.763636 -0.512727 0.24 -0.512727V0C0.621818 -0.0218182 1.18909 -0.0327273 1.24364 -0.0327273C1.51636 -0.0327273 2.14909 -0.0109091 2.36727 0V-0.512727C2.17091 -0.512727 1.96364 -0.567273 1.96364 -0.632727C1.96364 -0.643636 1.96364 -0.654545 2.04 -0.741818L3.09818 -1.93091L4.29818 -0.512727H3.87273V0C4.15636 -0.0109091 4.82182 -0.0327273 5.18182 -0.0327273C5.53091 -0.0327273 6.02182 -0.0109091 6.38182 0V-0.512727H5.60727L3.77454 -2.68364Z' id='g0-120'/>
<path d='M7.35273 -3.53454C7.50545 -3.6 7.57091 -3.67636 7.57091 -3.77454C7.57091 -3.88364 7.52727 -3.94909 7.35273 -4.02545L1.34182 -6.86182C1.18909 -6.93818 1.14545 -6.93818 1.12364 -6.93818C0.992727 -6.93818 0.905454 -6.84 0.905454 -6.72C0.905454 -6.58909 0.992727 -6.53454 1.11273 -6.48L6.84 -3.78545L1.13455 -1.09091C0.916363 -0.992727 0.905454 -0.905454 0.905454 -0.84C0.905454 -0.72 1.00364 -0.621818 1.12364 -0.621818C1.15636 -0.621818 1.17818 -0.621818 1.32 -0.698182L7.35273 -3.53454ZM7.18909 1.49455C7.37454 1.49455 7.57091 1.49455 7.57091 1.27636S7.34182 1.05818 7.17818 1.05818H1.29818C1.13455 1.05818 0.905454 1.05818 0.905454 1.27636S1.10182 1.49455 1.28727 1.49455H7.18909Z' id='g2-21'/>
<path d='M2.09454 -0.578182C2.09454 -0.894545 1.83273 -1.15636 1.51636 -1.15636S0.938182 -0.894545 0.938182 -0.578182S1.2 0 1.51636 0S2.09454 -0.261818 2.09454 -0.578182Z' id='g4-58'/>
<path d='M7.36363 -5.43273C7.49454 -5.49818 7.57091 -5.55273 7.57091 -5.67273S7.47273 -5.89091 7.35273 -5.89091C7.32 -5.89091 7.29818 -5.89091 7.15636 -5.81454L1.11273 -2.96727C0.992727 -2.91273 0.905454 -2.85818 0.905454 -2.72727S0.992727 -2.54182 1.11273 -2.48727L7.15636 0.36C7.29818 0.436364 7.32 0.436364 7.35273 0.436364C7.47273 0.436364 7.57091 0.338182 7.57091 0.218182S7.49454 0.0436364 7.36363 -0.0218182L1.63636 -2.72727L7.36363 -5.43273Z' id='g4-60'/>
<path d='M5.30182 -4.15636C5.34545 -4.30909 5.34545 -4.33091 5.34545 -4.40727C5.34545 -4.60364 5.19273 -4.70182 5.02909 -4.70182C4.92 -4.70182 4.74545 -4.63636 4.64727 -4.47273C4.62545 -4.41818 4.53818 -4.08 4.49454 -3.88364C4.41818 -3.6 4.34182 -3.30545 4.27636 -3.01091L3.78545 -1.04727C3.74182 -0.883636 3.27273 -0.12 2.55273 -0.12C1.99636 -0.12 1.87636 -0.6 1.87636 -1.00364C1.87636 -1.50545 2.06182 -2.18182 2.43273 -3.14182C2.60727 -3.58909 2.65091 -3.70909 2.65091 -3.92727C2.65091 -4.41818 2.30182 -4.82182 1.75636 -4.82182C0.72 -4.82182 0.316364 -3.24 0.316364 -3.14182C0.316364 -3.03273 0.425454 -3.03273 0.447273 -3.03273C0.556363 -3.03273 0.567273 -3.05454 0.621818 -3.22909C0.916363 -4.25454 1.35273 -4.58182 1.72364 -4.58182C1.81091 -4.58182 1.99636 -4.58182 1.99636 -4.23273C1.99636 -3.96 1.88727 -3.67636 1.81091 -3.46909C1.37455 -2.31273 1.17818 -1.69091 1.17818 -1.17818C1.17818 -0.207273 1.86545 0.12 2.50909 0.12C2.93454 0.12 3.30545 -0.0654545 3.61091 -0.370909C3.46909 0.196364 3.33818 0.730909 2.90182 1.30909C2.61818 1.68 2.20364 1.99636 1.70182 1.99636C1.54909 1.99636 1.05818 1.96364 0.872727 1.53818C1.04727 1.53818 1.18909 1.53818 1.34182 1.40727C1.45091 1.30909 1.56 1.16727 1.56 0.96C1.56 0.621818 1.26545 0.578182 1.15636 0.578182C0.905454 0.578182 0.545454 0.752727 0.545454 1.28727C0.545454 1.83273 1.02545 2.23636 1.70182 2.23636C2.82545 2.23636 3.94909 1.24364 4.25454 0.0109091L5.30182 -4.15636Z' id='g4-121'/>
<path d='M5.01818 -3.49091C5.01818 -4.36364 4.96363 -5.23636 4.58182 -6.04363C4.08 -7.09091 3.18545 -7.26545 2.72727 -7.26545C2.07273 -7.26545 1.27636 -6.98182 0.829091 -5.96727C0.48 -5.21454 0.425454 -4.36364 0.425454 -3.49091C0.425454 -2.67273 0.469091 -1.69091 0.916363 -0.861818C1.38545 0.0218182 2.18182 0.24 2.71636 0.24C3.30545 0.24 4.13454 0.0109091 4.61454 -1.02545C4.96363 -1.77818 5.01818 -2.62909 5.01818 -3.49091ZM2.71636 0C2.29091 0 1.64727 -0.272727 1.45091 -1.32C1.33091 -1.97454 1.33091 -2.97818 1.33091 -3.62182C1.33091 -4.32 1.33091 -5.04 1.41818 -5.62909C1.62545 -6.92727 2.44364 -7.02545 2.71636 -7.02545C3.07636 -7.02545 3.79636 -6.82909 4.00364 -5.74909C4.11273 -5.13818 4.11273 -4.30909 4.11273 -3.62182C4.11273 -2.80364 4.11273 -2.06182 3.99273 -1.36364C3.82909 -0.327273 3.20727 0 2.71636 0Z' id='g5-48'/>
<path d='M3.20727 -6.98182C3.20727 -7.24363 3.20727 -7.26545 2.95636 -7.26545C2.28 -6.56727 1.32 -6.56727 0.970909 -6.56727V-6.22909C1.18909 -6.22909 1.83273 -6.22909 2.4 -6.51273V-0.861818C2.4 -0.469091 2.36727 -0.338182 1.38545 -0.338182H1.03636V0C1.41818 -0.0327273 2.36727 -0.0327273 2.80364 -0.0327273S4.18909 -0.0327273 4.57091 0V-0.338182H4.22182C3.24 -0.338182 3.20727 -0.458182 3.20727 -0.861818V-6.98182Z' id='g5-49'/>
<path d='M7.49454 -3.56727C7.65818 -3.56727 7.86545 -3.56727 7.86545 -3.78545S7.65818 -4.00364 7.50545 -4.00364H0.970909C0.818182 -4.00364 0.610909 -4.00364 0.610909 -3.78545S0.818182 -3.56727 0.981818 -3.56727H7.49454ZM7.50545 -1.45091C7.65818 -1.45091 7.86545 -1.45091 7.86545 -1.66909S7.65818 -1.88727 7.49454 -1.88727H0.981818C0.818182 -1.88727 0.610909 -1.88727 0.610909 -1.66909S0.818182 -1.45091 0.970909 -1.45091H7.50545Z' id='g5-61'/>
<path d='M2.72727 -7.57091L1.26545 -6.08727L1.46182 -5.89091L2.72727 -7.00363L3.98182 -5.89091L4.17818 -6.08727L2.72727 -7.57091Z' id='g5-94'/>
<path d='M1.90909 -4.70182V-5.96727C1.90909 -6.92727 2.43273 -7.45091 2.91273 -7.45091C2.94545 -7.45091 3.10909 -7.45091 3.27273 -7.37454C3.14182 -7.33091 2.94545 -7.18909 2.94545 -6.91636C2.94545 -6.66545 3.12 -6.44727 3.41454 -6.44727C3.73091 -6.44727 3.89454 -6.66545 3.89454 -6.92727C3.89454 -7.33091 3.49091 -7.69091 2.91273 -7.69091C2.14909 -7.69091 1.22182 -7.11273 1.22182 -5.95636V-4.70182H0.36V-4.36364H1.22182V-0.829091C1.22182 -0.338182 1.10182 -0.338182 0.370909 -0.338182V0C0.796363 -0.0109091 1.30909 -0.0327273 1.61455 -0.0327273C2.05091 -0.0327273 2.56364 -0.0327273 3 0V-0.338182H2.77091C1.96364 -0.338182 1.94182 -0.458182 1.94182 -0.850909V-4.36364H3.18545V-4.70182H1.90909Z' id='g5-102'/>
<path d='M1.93091 -4.82182L0.403636 -4.70182V-4.36364C1.11273 -4.36364 1.21091 -4.29818 1.21091 -3.76364V-0.829091C1.21091 -0.338182 1.09091 -0.338182 0.36 -0.338182V0C0.709091 -0.0109091 1.29818 -0.0327273 1.56 -0.0327273C1.94182 -0.0327273 2.32364 -0.0109091 2.69454 0V-0.338182C1.97454 -0.338182 1.93091 -0.392727 1.93091 -0.818182V-4.82182ZM1.97454 -6.72C1.97454 -7.06909 1.70182 -7.29818 1.39636 -7.29818C1.05818 -7.29818 0.818182 -7.00363 0.818182 -6.72C0.818182 -6.42545 1.05818 -6.14182 1.39636 -6.14182C1.70182 -6.14182 1.97454 -6.37091 1.97454 -6.72Z' id='g5-105'/>
<path d='M3.60249 -4.82192C3.67422 -5.10884 3.68219 -5.12478 4.00897 -5.12478H4.61469C5.44359 -5.12478 5.53923 -4.86177 5.53923 -4.46326C5.53923 -4.26401 5.49141 -3.9213 5.48344 -3.88144C5.4675 -3.79377 5.45953 -3.72204 5.45953 -3.7061C5.45953 -3.60249 5.53126 -3.57858 5.57908 -3.57858C5.66675 -3.57858 5.69863 -3.6264 5.72254 -3.77783L5.93773 -5.27621C5.93773 -5.3878 5.84209 -5.3878 5.69863 -5.3878H1.00423C0.804981 -5.3878 0.789041 -5.3878 0.73325 -5.22042L0.247073 -3.84159C0.231133 -3.80174 0.207223 -3.73798 0.207223 -3.69016C0.207223 -3.6264 0.263014 -3.57858 0.326775 -3.57858C0.414446 -3.57858 0.430386 -3.61843 0.478207 -3.75392C0.932503 -5.02914 1.16364 -5.12478 2.37509 -5.12478H2.68593C2.92503 -5.12478 2.933 -5.11681 2.933 -5.05305C2.933 -5.02914 2.90112 -4.86974 2.89315 -4.83786L1.8411 -0.653549C1.76936 -0.350685 1.74545 -0.263014 0.916563 -0.263014C0.661519 -0.263014 0.581818 -0.263014 0.581818 -0.111582C0.581818 -0.103611 0.581818 0 0.71731 0C0.932503 0 1.48244 -0.0239103 1.69763 -0.0239103H2.37509C2.59826 -0.0239103 3.15616 0 3.37933 0C3.44309 0 3.56264 0 3.56264 -0.151432C3.56264 -0.263014 3.47497 -0.263014 3.25978 -0.263014C3.06849 -0.263014 3.00473 -0.263014 2.79751 -0.278954C2.54247 -0.302864 2.51059 -0.334745 2.51059 -0.438356C2.51059 -0.470237 2.51856 -0.502117 2.54247 -0.581818L3.60249 -4.82192Z' id='g3-84'/>
<path d='M4.92 19.9309C4.92 18.7309 4.09091 16.8873 2.19273 15.9273C3.37091 15.2945 4.77818 14.0182 4.90909 11.9782L4.92 11.9127V4.35273C4.92 3.45818 4.92 3.26182 5.00727 2.84727C5.20363 1.97454 5.72727 0.894545 7.11273 0.0763636C7.2 0.0218182 7.21091 0.0109091 7.21091 -0.185454C7.21091 -0.425454 7.2 -0.436364 6.96 -0.436364C6.76363 -0.436364 6.74182 -0.436364 6.44727 -0.261818C4.00364 1.12364 3.86182 3.15273 3.86182 3.53454V11.2909C3.86182 12.0764 3.86182 12.96 3.29454 13.9636C2.79273 14.8582 2.20364 15.3055 1.73454 15.6218C1.58182 15.72 1.57091 15.7309 1.57091 15.9164C1.57091 16.1127 1.58182 16.1236 1.66909 16.1782C2.59636 16.7891 3.58909 17.76 3.82909 19.5382C3.86182 19.7782 3.86182 19.8 3.86182 19.9309V28.3091C3.86182 29.1927 4.40727 31.0254 6.51273 32.1382C6.76363 32.28 6.78545 32.28 6.96 32.28C7.2 32.28 7.21091 32.2691 7.21091 32.0291C7.21091 31.8327 7.2 31.8218 7.15636 31.8C6.68727 31.5054 5.25818 30.6436 4.96363 28.7454C4.92 28.4618 4.92 28.44 4.92 28.2982V19.9309Z' id='g1-40'/>
</defs>
<g id='page1'>
<use x='71.4835' xlink:href='#g5-94' y='76.8744'/>
<use x='70.7347' xlink:href='#g4-121' y='76.8744'/>
<use x='79.5049' xlink:href='#g5-61' y='76.8744'/>
<use x='90.9883' xlink:href='#g1-40' y='58.2197'/>
<use x='99.7763' xlink:href='#g5-48' y='69.2694'/>
<use x='108.847' xlink:href='#g5-105' y='69.2694'/>
<use x='111.866' xlink:href='#g5-102' y='69.2694'/>
<use x='118.847' xlink:href='#g0-119' y='69.2694'/>
<use x='127.907' xlink:href='#g3-84' y='65.3106'/>
<use x='134.512' xlink:href='#g4-58' y='69.2694'/>
<use x='137.531' xlink:href='#g0-120' y='69.2694'/>
<use x='147.182' xlink:href='#g4-60' y='69.2694'/>
<use x='158.666' xlink:href='#g5-48' y='69.2694'/>
<use x='99.7763' xlink:href='#g5-49' y='85.5283'/>
<use x='108.847' xlink:href='#g5-105' y='85.5283'/>
<use x='111.866' xlink:href='#g5-102' y='85.5283'/>
<use x='118.847' xlink:href='#g0-119' y='85.5283'/>
<use x='127.907' xlink:href='#g3-84' y='81.5695'/>
<use x='134.512' xlink:href='#g4-58' y='85.5283'/>
<use x='137.531' xlink:href='#g0-120' y='85.5283'/>
<use x='147.182' xlink:href='#g2-21' y='85.5283'/>
</g>
</svg>
<!--Rendered by QuickLaTeX.com-->