<?xml version='1.0' encoding='UTF-8'?>
<!-- This file was generated by dvisvgm 1.15.1 -->
<svg height='26.824pt' version='1.1' viewBox='53.7983 59.3299 197.7 26.824' width='197.7pt' xmlns='http://www.w3.org/2000/svg' xmlns:xlink='http://www.w3.org/1999/xlink'>
<defs>
<path d='M8.04 -4.10182C8.09454 -4.24364 8.13818 -4.33091 8.78182 -4.33091V-4.84364C8.53091 -4.82182 8.20363 -4.81091 7.94182 -4.81091C7.64727 -4.81091 7.13454 -4.83273 6.89454 -4.84364V-4.33091C6.99273 -4.33091 7.52727 -4.32 7.52727 -4.2C7.52727 -4.16727 7.49454 -4.10182 7.48363 -4.06909L6.33818 -1.27636L5.09454 -4.33091H5.70545V-4.84364C5.35636 -4.83273 4.78909 -4.81091 4.46182 -4.81091C4.00364 -4.81091 3.54545 -4.83273 3.37091 -4.84364V-4.33091H4.01454C4.24364 -3.78545 4.24364 -3.76364 4.24364 -3.75273C4.24364 -3.70909 4.21091 -3.64364 4.2 -3.61091L3.33818 -1.51636L2.19273 -4.33091H2.80364V-4.84364C2.35636 -4.82182 1.90909 -4.81091 1.46182 -4.81091C1.12364 -4.81091 0.643636 -4.83273 0.272727 -4.84364V-4.33091H0.916363L2.58545 -0.250909C2.66182 -0.0654545 2.70545 0.0436364 2.97818 0.0436364S3.29454 -0.0654545 3.37091 -0.250909L4.52727 -3.07636L5.68363 -0.250909C5.76 -0.0654545 5.80363 0.0436364 6.07636 0.0436364S6.39273 -0.0654545 6.46909 -0.250909L8.04 -4.10182Z' id='g0-119'/>
<path d='M3.77454 -2.68364L5.05091 -4.10182C5.19273 -4.25454 5.25818 -4.33091 6.16363 -4.33091V-4.84364C5.78182 -4.82182 5.21454 -4.81091 5.16 -4.81091C4.88727 -4.81091 4.34182 -4.83273 4.03636 -4.84364V-4.33091C4.18909 -4.33091 4.32 -4.30909 4.45091 -4.23273C4.40727 -4.16727 4.40727 -4.14545 4.36364 -4.10182L3.44727 -3.07636L2.37818 -4.33091H2.81454V-4.84364C2.53091 -4.83273 1.84364 -4.81091 1.49455 -4.81091S0.654545 -4.83273 0.294545 -4.84364V-4.33091H1.06909L2.77091 -2.32364L1.34182 -0.72C1.15636 -0.512727 0.763636 -0.512727 0.24 -0.512727V0C0.621818 -0.0218182 1.18909 -0.0327273 1.24364 -0.0327273C1.51636 -0.0327273 2.14909 -0.0109091 2.36727 0V-0.512727C2.17091 -0.512727 1.96364 -0.567273 1.96364 -0.632727C1.96364 -0.643636 1.96364 -0.654545 2.04 -0.741818L3.09818 -1.93091L4.29818 -0.512727H3.87273V0C4.15636 -0.0109091 4.82182 -0.0327273 5.18182 -0.0327273C5.53091 -0.0327273 6.02182 -0.0109091 6.38182 0V-0.512727H5.60727L3.77454 -2.68364Z' id='g0-120'/>
<path d='M1.49041 -0.119552C1.49041 0.398506 1.37883 0.852802 0.884682 1.34695C0.852802 1.37086 0.836862 1.3868 0.836862 1.42665C0.836862 1.49041 0.900623 1.53823 0.956413 1.53823C1.05205 1.53823 1.71357 0.908593 1.71357 -0.0239103C1.71357 -0.533998 1.52229 -0.884682 1.17161 -0.884682C0.892653 -0.884682 0.73325 -0.661519 0.73325 -0.446326C0.73325 -0.223163 0.884682 0 1.17958 0C1.37086 0 1.49041 -0.111582 1.49041 -0.119552Z' id='g2-59'/>
<path d='M3.60249 -4.82192C3.67422 -5.10884 3.68219 -5.12478 4.00897 -5.12478H4.61469C5.44359 -5.12478 5.53923 -4.86177 5.53923 -4.46326C5.53923 -4.26401 5.49141 -3.9213 5.48344 -3.88144C5.4675 -3.79377 5.45953 -3.72204 5.45953 -3.7061C5.45953 -3.60249 5.53126 -3.57858 5.57908 -3.57858C5.66675 -3.57858 5.69863 -3.6264 5.72254 -3.77783L5.93773 -5.27621C5.93773 -5.3878 5.84209 -5.3878 5.69863 -5.3878H1.00423C0.804981 -5.3878 0.789041 -5.3878 0.73325 -5.22042L0.247073 -3.84159C0.231133 -3.80174 0.207223 -3.73798 0.207223 -3.69016C0.207223 -3.6264 0.263014 -3.57858 0.326775 -3.57858C0.414446 -3.57858 0.430386 -3.61843 0.478207 -3.75392C0.932503 -5.02914 1.16364 -5.12478 2.37509 -5.12478H2.68593C2.92503 -5.12478 2.933 -5.11681 2.933 -5.05305C2.933 -5.02914 2.90112 -4.86974 2.89315 -4.83786L1.8411 -0.653549C1.76936 -0.350685 1.74545 -0.263014 0.916563 -0.263014C0.661519 -0.263014 0.581818 -0.263014 0.581818 -0.111582C0.581818 -0.103611 0.581818 0 0.71731 0C0.932503 0 1.48244 -0.0239103 1.69763 -0.0239103H2.37509C2.59826 -0.0239103 3.15616 0 3.37933 0C3.44309 0 3.56264 0 3.56264 -0.151432C3.56264 -0.263014 3.47497 -0.263014 3.25978 -0.263014C3.06849 -0.263014 3.00473 -0.263014 2.79751 -0.278954C2.54247 -0.302864 2.51059 -0.334745 2.51059 -0.438356C2.51059 -0.470237 2.51856 -0.502117 2.54247 -0.581818L3.60249 -4.82192Z' id='g2-84'/>
<path d='M1.94471 -5.29215C1.95268 -5.30809 1.97659 -5.41171 1.97659 -5.41968C1.97659 -5.45953 1.94471 -5.53126 1.84907 -5.53126C1.81719 -5.53126 1.57011 -5.50735 1.3868 -5.49141L0.940473 -5.45953C0.765131 -5.44359 0.68543 -5.43562 0.68543 -5.29215C0.68543 -5.18057 0.797011 -5.18057 0.892653 -5.18057C1.27522 -5.18057 1.27522 -5.13275 1.27522 -5.06102C1.27522 -5.0132 1.19552 -4.6944 1.1477 -4.51108L0.454296 -1.73748C0.390535 -1.4665 0.390535 -1.34695 0.390535 -1.21146C0.390535 -0.390535 0.892653 0.0797011 1.50635 0.0797011C2.48667 0.0797011 3.50685 -1.05205 3.50685 -2.20772C3.50685 -2.99676 2.99676 -3.51482 2.35915 -3.51482C1.91283 -3.51482 1.57011 -3.2279 1.39477 -3.07646L1.94471 -5.29215ZM1.50635 -0.143462C1.21943 -0.143462 0.932503 -0.366625 0.932503 -0.948443C0.932503 -1.16364 0.964384 -1.36289 1.06002 -1.74545C1.11582 -1.97659 1.17161 -2.19975 1.23537 -2.43088C1.27522 -2.57435 1.27522 -2.59029 1.37086 -2.70984C1.64184 -3.04458 2.0005 -3.29166 2.33524 -3.29166C2.73375 -3.29166 2.88518 -2.90112 2.88518 -2.54247C2.88518 -2.24757 2.70984 -1.39477 2.47073 -0.924533C2.26351 -0.494147 1.88095 -0.143462 1.50635 -0.143462Z' id='g2-98'/>
<path d='M2.37509 -4.97335C2.37509 -5.14869 2.24757 -5.27621 2.06426 -5.27621C1.85704 -5.27621 1.6259 -5.08493 1.6259 -4.84583C1.6259 -4.67049 1.75342 -4.54296 1.93674 -4.54296C2.14396 -4.54296 2.37509 -4.73425 2.37509 -4.97335ZM1.21146 -2.04832L0.781071 -0.948443C0.74122 -0.828892 0.70137 -0.73325 0.70137 -0.597758C0.70137 -0.207223 1.00423 0.0797011 1.42665 0.0797011C2.19975 0.0797011 2.52653 -1.03611 2.52653 -1.13973C2.52653 -1.21943 2.46276 -1.24334 2.40697 -1.24334C2.31133 -1.24334 2.29539 -1.18755 2.27148 -1.10785C2.08817 -0.470237 1.76139 -0.143462 1.44259 -0.143462C1.34695 -0.143462 1.25131 -0.183313 1.25131 -0.398506C1.25131 -0.589788 1.3071 -0.73325 1.41071 -0.980324C1.49041 -1.19552 1.57011 -1.41071 1.65778 -1.6259L1.90486 -2.27148C1.97659 -2.45479 2.07223 -2.70187 2.07223 -2.83736C2.07223 -3.23587 1.75342 -3.51482 1.34695 -3.51482C0.573848 -3.51482 0.239103 -2.399 0.239103 -2.29539C0.239103 -2.22366 0.294894 -2.19178 0.358655 -2.19178C0.462267 -2.19178 0.470237 -2.2396 0.494147 -2.3193C0.71731 -3.07646 1.08394 -3.29166 1.32304 -3.29166C1.43462 -3.29166 1.51432 -3.25181 1.51432 -3.02864C1.51432 -2.94894 1.50635 -2.83736 1.42665 -2.59826L1.21146 -2.04832Z' id='g2-105'/>
<path d='M3.90535 -2.60623C3.95318 -2.79751 4.04085 -3.14022 4.04085 -3.18804C4.04085 -3.3873 3.88144 -3.43512 3.7858 -3.43512C3.50685 -3.43512 3.45903 -3.23587 3.36339 -2.86924C3.25978 -2.45479 3.2279 -2.30336 3.10834 -1.84907C3.03661 -1.5462 2.94097 -1.17161 2.94097 -0.940473C2.94097 -0.900623 2.94894 -0.836862 2.94894 -0.797011C2.94894 -0.789041 2.73375 -0.143462 2.20772 -0.143462C1.88892 -0.143462 1.53026 -0.270984 1.53026 -0.860772C1.53026 -1.25131 1.71357 -1.76936 1.96862 -2.41494C2.04832 -2.62217 2.07223 -2.6939 2.07223 -2.83736C2.07223 -3.27572 1.72154 -3.51482 1.35492 -3.51482C0.565878 -3.51482 0.239103 -2.39103 0.239103 -2.29539C0.239103 -2.22366 0.294894 -2.19178 0.358655 -2.19178C0.462267 -2.19178 0.470237 -2.2396 0.494147 -2.3193C0.70137 -3.0127 1.04408 -3.29166 1.33101 -3.29166C1.45056 -3.29166 1.52229 -3.21196 1.52229 -3.02864C1.52229 -2.86127 1.45853 -2.67796 1.40274 -2.5345C1.09191 -1.73748 0.948443 -1.31507 0.948443 -0.964384C0.948443 -0.151432 1.61793 0.0797011 2.17584 0.0797011C2.30336 0.0797011 2.71781 0.0797011 3.04458 -0.446326C3.26775 -0.0159402 3.76986 0.0797011 4.11258 0.0797011C4.82989 0.0797011 5.16463 -0.589788 5.30809 -0.868742C5.56314 -1.3868 5.84209 -2.43088 5.84209 -2.90112C5.84209 -3.52279 5.48344 -3.52279 5.45156 -3.52279C5.26027 -3.52279 5.03711 -3.31557 5.03711 -3.10834C5.03711 -2.99676 5.08493 -2.933 5.14072 -2.89315C5.22839 -2.81345 5.4675 -2.6142 5.4675 -2.22366C5.4675 -1.99253 5.24433 -1.23537 5.02117 -0.820922C4.79801 -0.422416 4.53499 -0.143462 4.13649 -0.143462C3.7858 -0.143462 3.51482 -0.326775 3.51482 -0.836862C3.51482 -1.04408 3.57061 -1.26725 3.68219 -1.71357L3.90535 -2.60623Z' id='g2-119'/>
<path d='M2.65405 1.99253C2.71781 1.99253 2.81345 1.99253 2.81345 1.89689C2.81345 1.86501 2.80548 1.85704 2.70187 1.75342C1.60996 0.72528 1.33898 -0.757161 1.33898 -1.99253C1.33898 -4.28792 2.28742 -5.36389 2.6939 -5.73051C2.80548 -5.83412 2.81345 -5.84209 2.81345 -5.88194S2.78157 -5.97758 2.70187 -5.97758C2.57435 -5.97758 2.17584 -5.57111 2.11208 -5.49938C1.04408 -4.38356 0.820922 -2.94894 0.820922 -1.99253C0.820922 -0.207223 1.57011 1.2274 2.65405 1.99253Z' id='g4-40'/>
<path d='M2.46276 -1.99253C2.46276 -2.74969 2.33524 -3.65828 1.8411 -4.59875C1.45056 -5.332 0.72528 -5.97758 0.581818 -5.97758C0.502117 -5.97758 0.478207 -5.92179 0.478207 -5.88194C0.478207 -5.85006 0.478207 -5.83412 0.573848 -5.73848C1.68966 -4.67846 1.94471 -3.21993 1.94471 -1.99253C1.94471 0.294894 0.996264 1.37883 0.589788 1.74545C0.486177 1.84907 0.478207 1.85704 0.478207 1.89689S0.502117 1.99253 0.581818 1.99253C0.70934 1.99253 1.10785 1.58605 1.17161 1.51432C2.2396 0.398506 2.46276 -1.03611 2.46276 -1.99253Z' id='g4-41'/>
<path d='M2.50262 -5.07696C2.50262 -5.29215 2.48667 -5.30012 2.27148 -5.30012C1.94471 -4.98132 1.52229 -4.79004 0.765131 -4.79004V-4.52702C0.980324 -4.52702 1.41071 -4.52702 1.87298 -4.74222V-0.653549C1.87298 -0.358655 1.84907 -0.263014 1.09191 -0.263014H0.812951V0C1.13973 -0.0239103 1.82516 -0.0239103 2.18381 -0.0239103S3.23587 -0.0239103 3.56264 0V-0.263014H3.28369C2.52653 -0.263014 2.50262 -0.358655 2.50262 -0.653549V-5.07696Z' id='g4-49'/>
<path d='M2.24757 -1.6259C2.37509 -1.74545 2.70984 -2.00847 2.83736 -2.12005C3.33151 -2.57435 3.80174 -3.0127 3.80174 -3.73798C3.80174 -4.68643 3.00473 -5.30012 2.00847 -5.30012C1.05205 -5.30012 0.422416 -4.57484 0.422416 -3.8655C0.422416 -3.47497 0.73325 -3.41918 0.844832 -3.41918C1.0122 -3.41918 1.25928 -3.53873 1.25928 -3.84159C1.25928 -4.25604 0.860772 -4.25604 0.765131 -4.25604C0.996264 -4.83786 1.53026 -5.03711 1.9208 -5.03711C2.66202 -5.03711 3.04458 -4.40747 3.04458 -3.73798C3.04458 -2.90909 2.46276 -2.30336 1.52229 -1.33898L0.518057 -0.302864C0.422416 -0.215193 0.422416 -0.199253 0.422416 0H3.57061L3.80174 -1.42665H3.55467C3.53076 -1.26725 3.467 -0.868742 3.37136 -0.71731C3.32354 -0.653549 2.71781 -0.653549 2.59029 -0.653549H1.17161L2.24757 -1.6259Z' id='g4-50'/>
<path d='M2.09454 -0.578182C2.09454 -0.894545 1.83273 -1.15636 1.51636 -1.15636S0.938182 -0.894545 0.938182 -0.578182S1.2 0 1.51636 0S2.09454 -0.261818 2.09454 -0.578182Z' id='g3-58'/>
<path d='M2.21454 -0.0109091C2.21454 -0.730909 1.94182 -1.15636 1.51636 -1.15636C1.15636 -1.15636 0.938182 -0.883636 0.938182 -0.578182C0.938182 -0.283636 1.15636 0 1.51636 0C1.64727 0 1.78909 -0.0436364 1.89818 -0.141818C1.93091 -0.163636 1.94182 -0.174545 1.95273 -0.174545S1.97454 -0.163636 1.97454 -0.0109091C1.97454 0.796363 1.59273 1.45091 1.23273 1.81091C1.11273 1.93091 1.11273 1.95273 1.11273 1.98545C1.11273 2.06182 1.16727 2.10545 1.22182 2.10545C1.34182 2.10545 2.21454 1.26545 2.21454 -0.0109091Z' id='g3-59'/>
<path d='M2.60727 -7.45091C2.60727 -7.46182 2.60727 -7.57091 2.46545 -7.57091C2.21454 -7.57091 1.41818 -7.48363 1.13455 -7.46182C1.04727 -7.45091 0.927272 -7.44 0.927272 -7.24363C0.927272 -7.11273 1.02545 -7.11273 1.18909 -7.11273C1.71273 -7.11273 1.73454 -7.03636 1.73454 -6.92727C1.73454 -6.85091 1.63636 -6.48 1.58182 -6.25091L0.687273 -2.69454C0.556363 -2.14909 0.512727 -1.97454 0.512727 -1.59273C0.512727 -0.556363 1.09091 0.12 1.89818 0.12C3.18545 0.12 4.52727 -1.50545 4.52727 -3.07636C4.52727 -4.06909 3.94909 -4.82182 3.07636 -4.82182C2.57454 -4.82182 2.12727 -4.50545 1.8 -4.16727L2.60727 -7.45091ZM1.58182 -3.32727C1.64727 -3.56727 1.64727 -3.58909 1.74545 -3.70909C2.28 -4.41818 2.77091 -4.58182 3.05454 -4.58182C3.44727 -4.58182 3.74182 -4.25454 3.74182 -3.55636C3.74182 -2.91273 3.38182 -1.65818 3.18545 -1.24364C2.82545 -0.512727 2.32364 -0.12 1.89818 -0.12C1.52727 -0.12 1.16727 -0.414545 1.16727 -1.22182C1.16727 -1.42909 1.16727 -1.63636 1.34182 -2.32364L1.58182 -3.32727Z' id='g3-98'/>
<path d='M4.32 -4.14545C4.14545 -4.14545 3.99273 -4.14545 3.84 -3.99273C3.66545 -3.82909 3.64364 -3.64364 3.64364 -3.56727C3.64364 -3.30545 3.84 -3.18545 4.04727 -3.18545C4.36364 -3.18545 4.65818 -3.44727 4.65818 -3.88364C4.65818 -4.41818 4.14545 -4.82182 3.37091 -4.82182C1.89818 -4.82182 0.447273 -3.26182 0.447273 -1.72364C0.447273 -0.741818 1.08 0.12 2.21454 0.12C3.77454 0.12 4.69091 -1.03636 4.69091 -1.16727C4.69091 -1.23273 4.62545 -1.30909 4.56 -1.30909C4.50545 -1.30909 4.48364 -1.28727 4.41818 -1.2C3.55636 -0.12 2.36727 -0.12 2.23636 -0.12C1.54909 -0.12 1.25455 -0.654545 1.25455 -1.30909C1.25455 -1.75636 1.47273 -2.81454 1.84364 -3.49091C2.18182 -4.11273 2.78182 -4.58182 3.38182 -4.58182C3.75273 -4.58182 4.16727 -4.44 4.32 -4.14545Z' id='g3-99'/>
<path d='M2.04 -2.52C2.35636 -2.52 3.16364 -2.54182 3.70909 -2.77091C4.47273 -3.09818 4.52727 -3.74182 4.52727 -3.89454C4.52727 -4.37454 4.11273 -4.82182 3.36 -4.82182C2.14909 -4.82182 0.501818 -3.76364 0.501818 -1.85454C0.501818 -0.741818 1.14545 0.12 2.21454 0.12C3.77454 0.12 4.69091 -1.03636 4.69091 -1.16727C4.69091 -1.23273 4.62545 -1.30909 4.56 -1.30909C4.50545 -1.30909 4.48364 -1.28727 4.41818 -1.2C3.55636 -0.12 2.36727 -0.12 2.23636 -0.12C1.38545 -0.12 1.28727 -1.03636 1.28727 -1.38545C1.28727 -1.51636 1.29818 -1.85454 1.46182 -2.52H2.04ZM1.52727 -2.76C1.95273 -4.41818 3.07636 -4.58182 3.36 -4.58182C3.87273 -4.58182 4.16727 -4.26545 4.16727 -3.89454C4.16727 -2.76 2.42182 -2.76 1.97454 -2.76H1.52727Z' id='g3-101'/>
<path d='M4.00364 -4.36364H4.94182C5.16 -4.36364 5.26909 -4.36364 5.26909 -4.58182C5.26909 -4.70182 5.16 -4.70182 4.97454 -4.70182H4.06909L4.29818 -5.94545C4.34182 -6.17454 4.49454 -6.94909 4.56 -7.08C4.65818 -7.28727 4.84364 -7.45091 5.07273 -7.45091C5.11636 -7.45091 5.4 -7.45091 5.60727 -7.25454C5.12727 -7.21091 5.01818 -6.82909 5.01818 -6.66545C5.01818 -6.41454 5.21454 -6.28363 5.42182 -6.28363C5.70545 -6.28363 6.02182 -6.52363 6.02182 -6.93818C6.02182 -7.44 5.52 -7.69091 5.07273 -7.69091C4.70182 -7.69091 4.01454 -7.49454 3.68727 -6.41454C3.62182 -6.18545 3.58909 -6.07636 3.32727 -4.70182H2.57454C2.36727 -4.70182 2.24727 -4.70182 2.24727 -4.49454C2.24727 -4.36364 2.34545 -4.36364 2.55273 -4.36364H3.27273L2.45454 -0.0545454C2.25818 1.00364 2.07273 1.99636 1.50545 1.99636C1.46182 1.99636 1.18909 1.99636 0.981818 1.8C1.48364 1.76727 1.58182 1.37455 1.58182 1.21091C1.58182 0.96 1.38545 0.829091 1.17818 0.829091C0.894545 0.829091 0.578182 1.06909 0.578182 1.48364C0.578182 1.97454 1.05818 2.23636 1.50545 2.23636C2.10545 2.23636 2.54182 1.59273 2.73818 1.17818C3.08727 0.490909 3.33818 -0.829091 3.34909 -0.905454L4.00364 -4.36364Z' id='g3-102'/>
<path d='M3.09818 -6.81818C3.09818 -7.03636 2.94545 -7.21091 2.69454 -7.21091C2.4 -7.21091 2.10545 -6.92727 2.10545 -6.63273C2.10545 -6.42545 2.25818 -6.24 2.52 -6.24C2.77091 -6.24 3.09818 -6.49091 3.09818 -6.81818ZM2.26909 -2.71636C2.4 -3.03273 2.4 -3.05454 2.50909 -3.34909C2.59636 -3.56727 2.65091 -3.72 2.65091 -3.92727C2.65091 -4.41818 2.30182 -4.82182 1.75636 -4.82182C0.730909 -4.82182 0.316364 -3.24 0.316364 -3.14182C0.316364 -3.03273 0.425454 -3.03273 0.447273 -3.03273C0.556363 -3.03273 0.567273 -3.05454 0.621818 -3.22909C0.916363 -4.25454 1.35273 -4.58182 1.72364 -4.58182C1.81091 -4.58182 1.99636 -4.58182 1.99636 -4.23273C1.99636 -4.00364 1.92 -3.77454 1.87636 -3.66545C1.78909 -3.38182 1.29818 -2.11636 1.12364 -1.64727C1.01455 -1.36364 0.872727 -1.00364 0.872727 -0.774545C0.872727 -0.261818 1.24364 0.12 1.76727 0.12C2.79273 0.12 3.19636 -1.46182 3.19636 -1.56C3.19636 -1.66909 3.09818 -1.66909 3.06545 -1.66909C2.95636 -1.66909 2.95636 -1.63636 2.90182 -1.47273C2.70545 -0.785454 2.34545 -0.12 1.78909 -0.12C1.60364 -0.12 1.52727 -0.229091 1.52727 -0.48C1.52727 -0.752727 1.59273 -0.905454 1.84364 -1.57091L2.26909 -2.71636Z' id='g3-105'/>
<path d='M4.33091 -6.81818C4.33091 -7.02545 4.17818 -7.21091 3.91636 -7.21091C3.66545 -7.21091 3.33818 -6.96 3.33818 -6.63273C3.33818 -6.41454 3.49091 -6.24 3.74182 -6.24C4.03636 -6.24 4.33091 -6.52363 4.33091 -6.81818ZM2.13818 0.545454C1.93091 1.37455 1.40727 1.99636 0.796363 1.99636C0.730909 1.99636 0.567273 1.99636 0.370909 1.89818C0.698182 1.82182 0.861818 1.53818 0.861818 1.32C0.861818 1.14545 0.741818 0.938182 0.447273 0.938182C0.174545 0.938182 -0.141818 1.16727 -0.141818 1.56C-0.141818 1.99636 0.294545 2.23636 0.818182 2.23636C1.58182 2.23636 2.59636 1.65818 2.86909 0.578182L3.87273 -3.41454C3.92727 -3.63273 3.92727 -3.78545 3.92727 -3.81818C3.92727 -4.44 3.46909 -4.82182 2.92364 -4.82182C1.81091 -4.82182 1.18909 -3.24 1.18909 -3.14182C1.18909 -3.03273 1.29818 -3.03273 1.32 -3.03273C1.41818 -3.03273 1.42909 -3.04364 1.51636 -3.25091C1.78909 -3.91636 2.29091 -4.58182 2.89091 -4.58182C3.04364 -4.58182 3.24 -4.53818 3.24 -4.08C3.24 -3.82909 3.20727 -3.70909 3.16364 -3.52364L2.13818 0.545454Z' id='g3-106'/>
<path d='M0.96 -0.643636C0.927272 -0.48 0.861818 -0.229091 0.861818 -0.174545C0.861818 0.0218182 1.01455 0.12 1.17818 0.12C1.30909 0.12 1.50545 0.0327273 1.58182 -0.185454C1.59273 -0.207273 1.72364 -0.72 1.78909 -0.992727L2.02909 -1.97454C2.09454 -2.21454 2.16 -2.45454 2.21454 -2.70545C2.25818 -2.89091 2.34545 -3.20727 2.35636 -3.25091C2.52 -3.58909 3.09818 -4.58182 4.13454 -4.58182C4.62545 -4.58182 4.72364 -4.17818 4.72364 -3.81818C4.72364 -3.54545 4.64727 -3.24 4.56 -2.91273L4.25454 -1.64727L4.03636 -0.818182C3.99273 -0.6 3.89454 -0.229091 3.89454 -0.174545C3.89454 0.0218182 4.04727 0.12 4.21091 0.12C4.54909 0.12 4.61454 -0.152727 4.70182 -0.501818C4.85454 -1.11273 5.25818 -2.70545 5.35636 -3.13091C5.38909 -3.27273 5.96727 -4.58182 7.15636 -4.58182C7.62545 -4.58182 7.74545 -4.21091 7.74545 -3.81818C7.74545 -3.19636 7.28727 -1.95273 7.06909 -1.37455C6.97091 -1.11273 6.92727 -0.992727 6.92727 -0.774545C6.92727 -0.261818 7.30909 0.12 7.82182 0.12C8.84727 0.12 9.25091 -1.47273 9.25091 -1.56C9.25091 -1.66909 9.15272 -1.66909 9.12 -1.66909C9.01091 -1.66909 9.01091 -1.63636 8.95636 -1.47273C8.79272 -0.894545 8.44363 -0.12 7.84363 -0.12C7.65818 -0.12 7.58182 -0.229091 7.58182 -0.48C7.58182 -0.752727 7.68 -1.01455 7.77818 -1.25455C7.98545 -1.82182 8.44363 -3.03273 8.44363 -3.65454C8.44363 -4.36364 8.00727 -4.82182 7.18909 -4.82182S5.81454 -4.34182 5.41091 -3.76364C5.4 -3.90545 5.36727 -4.27636 5.06182 -4.53818C4.78909 -4.76727 4.44 -4.82182 4.16727 -4.82182C3.18545 -4.82182 2.65091 -4.12364 2.46545 -3.87273C2.41091 -4.49454 1.95273 -4.82182 1.46182 -4.82182C0.96 -4.82182 0.752727 -4.39636 0.654545 -4.2C0.458182 -3.81818 0.316364 -3.17454 0.316364 -3.14182C0.316364 -3.03273 0.425454 -3.03273 0.447273 -3.03273C0.556363 -3.03273 0.567273 -3.04364 0.632727 -3.28364C0.818182 -4.05818 1.03636 -4.58182 1.42909 -4.58182C1.60364 -4.58182 1.76727 -4.49454 1.76727 -4.08C1.76727 -3.85091 1.73454 -3.73091 1.59273 -3.16364L0.96 -0.643636Z' id='g3-109'/>
<path d='M0.96 -0.643636C0.927272 -0.48 0.861818 -0.229091 0.861818 -0.174545C0.861818 0.0218182 1.01455 0.12 1.17818 0.12C1.30909 0.12 1.50545 0.0327273 1.58182 -0.185454C1.59273 -0.207273 1.72364 -0.72 1.78909 -0.992727L2.02909 -1.97454C2.09454 -2.21454 2.16 -2.45454 2.21454 -2.70545C2.25818 -2.89091 2.34545 -3.20727 2.35636 -3.25091C2.52 -3.58909 3.09818 -4.58182 4.13454 -4.58182C4.62545 -4.58182 4.72364 -4.17818 4.72364 -3.81818C4.72364 -3.14182 4.18909 -1.74545 4.01454 -1.27636C3.91636 -1.02545 3.90545 -0.894545 3.90545 -0.774545C3.90545 -0.261818 4.28727 0.12 4.8 0.12C5.82545 0.12 6.22909 -1.47273 6.22909 -1.56C6.22909 -1.66909 6.13091 -1.66909 6.09818 -1.66909C5.98909 -1.66909 5.98909 -1.63636 5.93454 -1.47273C5.71636 -0.730909 5.35636 -0.12 4.82182 -0.12C4.63636 -0.12 4.56 -0.229091 4.56 -0.48C4.56 -0.752727 4.65818 -1.01455 4.75636 -1.25455C4.96363 -1.83273 5.42182 -3.03273 5.42182 -3.65454C5.42182 -4.38545 4.95273 -4.82182 4.16727 -4.82182C3.18545 -4.82182 2.65091 -4.12364 2.46545 -3.87273C2.41091 -4.48364 1.96364 -4.82182 1.46182 -4.82182S0.752727 -4.39636 0.643636 -4.2C0.469091 -3.82909 0.316364 -3.18545 0.316364 -3.14182C0.316364 -3.03273 0.425454 -3.03273 0.447273 -3.03273C0.556363 -3.03273 0.567273 -3.04364 0.632727 -3.28364C0.818182 -4.05818 1.03636 -4.58182 1.42909 -4.58182C1.64727 -4.58182 1.76727 -4.44 1.76727 -4.08C1.76727 -3.85091 1.73454 -3.73091 1.59273 -3.16364L0.96 -0.643636Z' id='g3-110'/>
<path d='M5.11636 -2.97818C5.11636 -4.11273 4.35273 -4.82182 3.37091 -4.82182C1.90909 -4.82182 0.447273 -3.27273 0.447273 -1.72364C0.447273 -0.643636 1.17818 0.12 2.19273 0.12C3.64364 0.12 5.11636 -1.38545 5.11636 -2.97818ZM2.20364 -0.12C1.73454 -0.12 1.25455 -0.458182 1.25455 -1.30909C1.25455 -1.84364 1.53818 -3.02182 1.88727 -3.57818C2.43273 -4.41818 3.05454 -4.58182 3.36 -4.58182C3.99273 -4.58182 4.32 -4.05818 4.32 -3.40364C4.32 -2.97818 4.10182 -1.83273 3.68727 -1.12364C3.30545 -0.490909 2.70545 -0.12 2.20364 -0.12Z' id='g3-111'/>
<path d='M0.96 -0.643636C0.927272 -0.48 0.861818 -0.229091 0.861818 -0.174545C0.861818 0.0218182 1.01455 0.12 1.17818 0.12C1.30909 0.12 1.50545 0.0327273 1.58182 -0.185454C1.60364 -0.229091 1.97454 -1.71273 2.01818 -1.90909C2.10545 -2.26909 2.30182 -3.03273 2.36727 -3.32727C2.41091 -3.46909 2.71636 -3.98182 2.97818 -4.22182C3.06545 -4.29818 3.38182 -4.58182 3.85091 -4.58182C4.13454 -4.58182 4.29818 -4.45091 4.30909 -4.45091C3.98182 -4.39636 3.74182 -4.13454 3.74182 -3.85091C3.74182 -3.67636 3.86182 -3.46909 4.15636 -3.46909S4.75636 -3.72 4.75636 -4.11273C4.75636 -4.49454 4.40727 -4.82182 3.85091 -4.82182C3.14182 -4.82182 2.66182 -4.28727 2.45454 -3.98182C2.36727 -4.47273 1.97454 -4.82182 1.46182 -4.82182C0.96 -4.82182 0.752727 -4.39636 0.654545 -4.2C0.458182 -3.82909 0.316364 -3.17454 0.316364 -3.14182C0.316364 -3.03273 0.425454 -3.03273 0.447273 -3.03273C0.556363 -3.03273 0.567273 -3.04364 0.632727 -3.28364C0.818182 -4.05818 1.03636 -4.58182 1.42909 -4.58182C1.61455 -4.58182 1.76727 -4.49454 1.76727 -4.08C1.76727 -3.85091 1.73454 -3.73091 1.59273 -3.16364L0.96 -0.643636Z' id='g3-114'/>
<path d='M4.26545 -4.08C3.96 -4.06909 3.74182 -3.82909 3.74182 -3.58909C3.74182 -3.43636 3.84 -3.27273 4.08 -3.27273S4.58182 -3.45818 4.58182 -3.88364C4.58182 -4.37454 4.11273 -4.82182 3.28364 -4.82182C1.84364 -4.82182 1.44 -3.70909 1.44 -3.22909C1.44 -2.37818 2.24727 -2.21454 2.56364 -2.14909C3.13091 -2.04 3.69818 -1.92 3.69818 -1.32C3.69818 -1.03636 3.44727 -0.12 2.13818 -0.12C1.98545 -0.12 1.14545 -0.12 0.894545 -0.698182C1.30909 -0.643636 1.58182 -0.970909 1.58182 -1.27636C1.58182 -1.52727 1.40727 -1.65818 1.17818 -1.65818C0.894545 -1.65818 0.567273 -1.42909 0.567273 -0.938182C0.567273 -0.316364 1.18909 0.12 2.12727 0.12C3.89454 0.12 4.32 -1.2 4.32 -1.69091C4.32 -2.08364 4.11273 -2.35636 3.98182 -2.48727C3.68727 -2.79273 3.37091 -2.84727 2.89091 -2.94545C2.49818 -3.03273 2.06182 -3.10909 2.06182 -3.6C2.06182 -3.91636 2.32364 -4.58182 3.28364 -4.58182C3.55636 -4.58182 4.10182 -4.50545 4.26545 -4.08Z' id='g3-115'/>
<path d='M2.24727 -4.36364H3.27273C3.49091 -4.36364 3.6 -4.36364 3.6 -4.58182C3.6 -4.70182 3.49091 -4.70182 3.29454 -4.70182H2.33454C2.72727 -6.25091 2.78182 -6.46909 2.78182 -6.53454C2.78182 -6.72 2.65091 -6.82909 2.46545 -6.82909C2.43273 -6.82909 2.12727 -6.81818 2.02909 -6.43636L1.60364 -4.70182H0.578182C0.36 -4.70182 0.250909 -4.70182 0.250909 -4.49454C0.250909 -4.36364 0.338182 -4.36364 0.556363 -4.36364H1.51636C0.730909 -1.26545 0.687273 -1.08 0.687273 -0.883636C0.687273 -0.294545 1.10182 0.12 1.69091 0.12C2.80364 0.12 3.42545 -1.47273 3.42545 -1.56C3.42545 -1.66909 3.33818 -1.66909 3.29454 -1.66909C3.19636 -1.66909 3.18545 -1.63636 3.13091 -1.51636C2.66182 -0.381818 2.08364 -0.12 1.71273 -0.12C1.48364 -0.12 1.37455 -0.261818 1.37455 -0.621818C1.37455 -0.883636 1.39636 -0.96 1.44 -1.14545L2.24727 -4.36364Z' id='g3-116'/>
<path d='M3.81818 -0.610909C3.93818 -0.163636 4.32 0.12 4.78909 0.12C5.17091 0.12 5.42182 -0.130909 5.59636 -0.48C5.78182 -0.872727 5.92363 -1.53818 5.92363 -1.56C5.92363 -1.66909 5.82545 -1.66909 5.79273 -1.66909C5.68363 -1.66909 5.67273 -1.62545 5.64 -1.47273C5.48727 -0.861818 5.28 -0.12 4.82182 -0.12C4.59273 -0.12 4.48364 -0.261818 4.48364 -0.621818C4.48364 -0.861818 4.61454 -1.37455 4.70182 -1.75636L5.00727 -2.93454C5.04 -3.09818 5.14909 -3.51273 5.19273 -3.67636C5.24727 -3.92727 5.35636 -4.34182 5.35636 -4.40727C5.35636 -4.60364 5.20363 -4.70182 5.04 -4.70182C4.98545 -4.70182 4.70182 -4.69091 4.61454 -4.32C4.40727 -3.52364 3.92727 -1.61455 3.79636 -1.03636C3.78545 -0.992727 3.34909 -0.12 2.55273 -0.12C1.98545 -0.12 1.87636 -0.610909 1.87636 -1.01455C1.87636 -1.62545 2.18182 -2.48727 2.46545 -3.24C2.59636 -3.56727 2.65091 -3.72 2.65091 -3.92727C2.65091 -4.41818 2.30182 -4.82182 1.75636 -4.82182C0.72 -4.82182 0.316364 -3.24 0.316364 -3.14182C0.316364 -3.03273 0.425454 -3.03273 0.447273 -3.03273C0.556363 -3.03273 0.567273 -3.05454 0.621818 -3.22909C0.894545 -4.17818 1.30909 -4.58182 1.72364 -4.58182C1.82182 -4.58182 1.99636 -4.57091 1.99636 -4.22182C1.99636 -3.96 1.87636 -3.64364 1.81091 -3.48C1.40727 -2.4 1.17818 -1.72364 1.17818 -1.18909C1.17818 -0.152727 1.93091 0.12 2.52 0.12C3.24 0.12 3.63273 -0.370909 3.81818 -0.610909Z' id='g3-117'/>
<path d='M1.45091 -0.905454C2.04 -1.53818 2.35636 -1.81091 2.74909 -2.14909C2.74909 -2.16 3.42545 -2.73818 3.81818 -3.13091C4.85454 -4.14545 5.09454 -4.66909 5.09454 -4.71273C5.09454 -4.82182 4.99636 -4.82182 4.97454 -4.82182C4.89818 -4.82182 4.86545 -4.8 4.81091 -4.70182C4.48364 -4.17818 4.25454 -4.00364 3.99273 -4.00364S3.6 -4.16727 3.43636 -4.35273C3.22909 -4.60364 3.04364 -4.82182 2.68364 -4.82182C1.86545 -4.82182 1.36364 -3.80727 1.36364 -3.57818C1.36364 -3.52364 1.39636 -3.45818 1.49455 -3.45818S1.61455 -3.51273 1.63636 -3.57818C1.84364 -4.08 2.47636 -4.09091 2.56364 -4.09091C2.79273 -4.09091 3 -4.01454 3.25091 -3.92727C3.68727 -3.76364 3.80727 -3.76364 4.09091 -3.76364C3.69818 -3.29454 2.78182 -2.50909 2.57454 -2.33454L1.59273 -1.41818C0.850909 -0.687273 0.469091 -0.0654545 0.469091 0.0109091C0.469091 0.12 0.578182 0.12 0.6 0.12C0.687273 0.12 0.709091 0.0981818 0.774545 -0.0218182C1.02545 -0.403636 1.35273 -0.698182 1.70182 -0.698182C1.95273 -0.698182 2.06182 -0.6 2.33454 -0.283636C2.52 -0.0545454 2.71636 0.12 3.03273 0.12C4.11273 0.12 4.74545 -1.26545 4.74545 -1.56C4.74545 -1.61455 4.70182 -1.66909 4.61454 -1.66909C4.51636 -1.66909 4.49454 -1.60364 4.46182 -1.52727C4.21091 -0.818182 3.51273 -0.610909 3.15273 -0.610909C2.93454 -0.610909 2.73818 -0.676363 2.50909 -0.752727C2.13818 -0.894545 1.97454 -0.938182 1.74545 -0.938182C1.72364 -0.938182 1.54909 -0.938182 1.45091 -0.905454Z' id='g3-122'/>
<path d='M7.35273 -3.53454C7.50545 -3.6 7.57091 -3.67636 7.57091 -3.77454C7.57091 -3.88364 7.52727 -3.94909 7.35273 -4.02545L1.34182 -6.86182C1.18909 -6.93818 1.14545 -6.93818 1.12364 -6.93818C0.992727 -6.93818 0.905454 -6.84 0.905454 -6.72C0.905454 -6.58909 0.992727 -6.53454 1.11273 -6.48L6.84 -3.78545L1.13455 -1.09091C0.916363 -0.992727 0.905454 -0.905454 0.905454 -0.84C0.905454 -0.72 1.00364 -0.621818 1.12364 -0.621818C1.15636 -0.621818 1.17818 -0.621818 1.32 -0.698182L7.35273 -3.53454ZM7.18909 1.49455C7.37454 1.49455 7.57091 1.49455 7.57091 1.27636S7.34182 1.05818 7.17818 1.05818H1.29818C1.13455 1.05818 0.905454 1.05818 0.905454 1.27636S1.10182 1.49455 1.28727 1.49455H7.18909Z' id='g1-21'/>
<path d='M3.61091 2.61818C3.61091 2.58545 3.61091 2.56364 3.42545 2.37818C2.06182 1.00364 1.71273 -1.05818 1.71273 -2.72727C1.71273 -4.62545 2.12727 -6.52363 3.46909 -7.88727C3.61091 -8.01818 3.61091 -8.04 3.61091 -8.07273C3.61091 -8.14909 3.56727 -8.18182 3.50182 -8.18182C3.39273 -8.18182 2.41091 -7.44 1.76727 -6.05454C1.21091 -4.85454 1.08 -3.64364 1.08 -2.72727C1.08 -1.87636 1.2 -0.556363 1.8 0.676363C2.45454 2.01818 3.39273 2.72727 3.50182 2.72727C3.56727 2.72727 3.61091 2.69454 3.61091 2.61818Z' id='g5-40'/>
<path d='M3.15273 -2.72727C3.15273 -3.57818 3.03273 -4.89818 2.43273 -6.13091C1.77818 -7.47273 0.84 -8.18182 0.730909 -8.18182C0.665454 -8.18182 0.621818 -8.13818 0.621818 -8.07273C0.621818 -8.04 0.621818 -8.01818 0.829091 -7.82182C1.89818 -6.74182 2.52 -5.00727 2.52 -2.72727C2.52 -0.861818 2.11636 1.05818 0.763636 2.43273C0.621818 2.56364 0.621818 2.58545 0.621818 2.61818C0.621818 2.68364 0.665454 2.72727 0.730909 2.72727C0.84 2.72727 1.82182 1.98545 2.46545 0.6C3.02182 -0.6 3.15273 -1.81091 3.15273 -2.72727Z' id='g5-41'/>
<path d='M4.46182 -2.50909H7.50545C7.65818 -2.50909 7.86545 -2.50909 7.86545 -2.72727S7.65818 -2.94545 7.50545 -2.94545H4.46182V-6C4.46182 -6.15273 4.46182 -6.36 4.24364 -6.36S4.02545 -6.15273 4.02545 -6V-2.94545H0.970909C0.818182 -2.94545 0.610909 -2.94545 0.610909 -2.72727S0.818182 -2.50909 0.970909 -2.50909H4.02545V0.545454C4.02545 0.698182 4.02545 0.905454 4.24364 0.905454S4.46182 0.698182 4.46182 0.545454V-2.50909Z' id='g5-43'/>
<path d='M3.20727 -6.98182C3.20727 -7.24363 3.20727 -7.26545 2.95636 -7.26545C2.28 -6.56727 1.32 -6.56727 0.970909 -6.56727V-6.22909C1.18909 -6.22909 1.83273 -6.22909 2.4 -6.51273V-0.861818C2.4 -0.469091 2.36727 -0.338182 1.38545 -0.338182H1.03636V0C1.41818 -0.0327273 2.36727 -0.0327273 2.80364 -0.0327273S4.18909 -0.0327273 4.57091 0V-0.338182H4.22182C3.24 -0.338182 3.20727 -0.458182 3.20727 -0.861818V-6.98182Z' id='g5-49'/>
<path d='M1.38545 -0.84L2.54182 -1.96364C4.24364 -3.46909 4.89818 -4.05818 4.89818 -5.14909C4.89818 -6.39273 3.91636 -7.26545 2.58545 -7.26545C1.35273 -7.26545 0.545454 -6.26182 0.545454 -5.29091C0.545454 -4.68 1.09091 -4.68 1.12364 -4.68C1.30909 -4.68 1.69091 -4.81091 1.69091 -5.25818C1.69091 -5.54182 1.49455 -5.82545 1.11273 -5.82545C1.02545 -5.82545 1.00364 -5.82545 0.970909 -5.81454C1.22182 -6.52363 1.81091 -6.92727 2.44364 -6.92727C3.43636 -6.92727 3.90545 -6.04363 3.90545 -5.14909C3.90545 -4.27636 3.36 -3.41454 2.76 -2.73818L0.665454 -0.403636C0.545454 -0.283636 0.545454 -0.261818 0.545454 0H4.59273L4.89818 -1.89818H4.62545C4.57091 -1.57091 4.49454 -1.09091 4.38545 -0.927272C4.30909 -0.84 3.58909 -0.84 3.34909 -0.84H1.38545Z' id='g5-50'/>
<path d='M7.49454 -3.56727C7.65818 -3.56727 7.86545 -3.56727 7.86545 -3.78545S7.65818 -4.00364 7.50545 -4.00364H0.970909C0.818182 -4.00364 0.610909 -4.00364 0.610909 -3.78545S0.818182 -3.56727 0.981818 -3.56727H7.49454ZM7.50545 -1.45091C7.65818 -1.45091 7.86545 -1.45091 7.86545 -1.66909S7.65818 -1.88727 7.49454 -1.88727H0.981818C0.818182 -1.88727 0.610909 -1.88727 0.610909 -1.66909S0.818182 -1.45091 0.970909 -1.45091H7.50545Z' id='g5-61'/>
</defs>
<g id='page1'>
<use x='70.7347' xlink:href='#g3-109' y='68.7422'/>
<use x='80.2773' xlink:href='#g3-105' y='68.7422'/>
<use x='84.0216' xlink:href='#g3-110' y='68.7422'/>
<use x='90.5451' xlink:href='#g3-105' y='68.7422'/>
<use x='94.2894' xlink:href='#g3-109' y='68.7422'/>
<use x='103.832' xlink:href='#g3-105' y='68.7422'/>
<use x='107.576' xlink:href='#g3-122' y='68.7422'/>
<use x='113.11' xlink:href='#g3-101' y='68.7422'/>
<use x='118.171' xlink:href='#g2-119' y='70.5195'/>
<use x='124.44' xlink:href='#g2-59' y='70.5195'/>
<use x='126.783' xlink:href='#g2-98' y='70.5195'/>
<use x='135.767' xlink:href='#g4-49' y='64.447'/>
<rect height='0.436352' width='4.23418' x='135.767' y='65.7968'/>
<use x='135.767' xlink:href='#g4-50' y='72.5041'/>
<use x='141.197' xlink:href='#g0-119' y='68.7422'/>
<use x='150.257' xlink:href='#g2-84' y='64.7834'/>
<use x='156.862' xlink:href='#g3-58' y='68.7422'/>
<use x='159.881' xlink:href='#g0-119' y='68.7422'/>
<use x='53.7983' xlink:href='#g3-115' y='83.4368'/>
<use x='58.8928' xlink:href='#g3-117' y='83.4368'/>
<use x='65.1145' xlink:href='#g3-98' y='83.4368'/>
<use x='69.7788' xlink:href='#g3-106' y='83.4368'/>
<use x='74.8789' xlink:href='#g3-101' y='83.4368'/>
<use x='79.9395' xlink:href='#g3-99' y='83.4368'/>
<use x='84.6428' xlink:href='#g3-116' y='83.4368'/>
<use x='92.2039' xlink:href='#g3-116' y='83.4368'/>
<use x='96.1286' xlink:href='#g3-111' y='83.4368'/>
<use x='105.033' xlink:href='#g3-116' y='83.4368'/>
<use x='108.958' xlink:href='#g4-40' y='79.478'/>
<use x='112.239' xlink:href='#g2-105' y='79.478'/>
<use x='115.111' xlink:href='#g4-41' y='79.478'/>
<use x='118.926' xlink:href='#g5-40' y='83.4368'/>
<use x='123.152' xlink:href='#g0-119' y='83.4368'/>
<use x='132.213' xlink:href='#g2-84' y='79.478'/>
<use x='138.817' xlink:href='#g3-58' y='83.4368'/>
<use x='141.836' xlink:href='#g0-120' y='83.4368'/>
<use x='148.457' xlink:href='#g4-40' y='79.478'/>
<use x='151.738' xlink:href='#g2-105' y='79.478'/>
<use x='154.611' xlink:href='#g4-41' y='79.478'/>
<use x='160.849' xlink:href='#g5-43' y='83.4368'/>
<use x='171.727' xlink:href='#g3-98' y='83.4368'/>
<use x='176.391' xlink:href='#g5-41' y='83.4368'/>
<use x='183.648' xlink:href='#g1-21' y='83.4368'/>
<use x='195.131' xlink:href='#g5-49' y='83.4368'/>
<use x='200.565' xlink:href='#g3-102' y='83.4368'/>
<use x='207.061' xlink:href='#g3-111' y='83.4368'/>
<use x='212.329' xlink:href='#g3-114' y='83.4368'/>
<use x='217.535' xlink:href='#g3-105' y='83.4368'/>
<use x='224.31' xlink:href='#g5-61' y='83.4368'/>
<use x='235.793' xlink:href='#g5-49' y='83.4368'/>
<use x='241.227' xlink:href='#g3-59' y='83.4368'/>
<use x='246.064' xlink:href='#g5-50' y='83.4368'/>
</g>
</svg>
<!--Rendered by QuickLaTeX.com-->